<?xml version="1.0" encoding="utf-8"?>
<!-- Generator: Adobe Illustrator 25.0.1, SVG Export Plug-In . SVG Version: 6.00 Build 0)  -->
<svg version="1.1" id="Layer_1" xmlns="http://www.w3.org/2000/svg" xmlns:xlink="http://www.w3.org/1999/xlink" x="0px" y="0px"
	 viewBox="0 0 1396 495" style="enable-background:new 0 0 1396 495;" xml:space="preserve">
<style type="text/css">
	.st0{fill:#FFFFFF;}
	.st1{fill:#5566AF;}
</style>
<g>
	<path class="st0" d="M675.2,5c1.7,1,3.5,0.6,5.3,0.6c34.4-0.4,68.8,0.8,103,4.5c92.1,9.9,180.5,33.3,264.4,73
		c51.4,24.3,99.3,54.1,143.1,90.4c32.3,26.7,61.5,56.4,87.2,89.6c1.9,2.5,1.9,4-0.7,5.7c-3.9,2.6-6.8,8.6-11,8
		c-3.7-0.5-6.7-5.7-10-8.8c-48.7-47-103.4-85.6-163.4-116.8c-70.9-36.8-145.8-62-224.1-77.3c-40.2-7.9-80.7-13-121.7-15.2
		c-25.7-1.4-51.5-2.3-77.3-1.5C544.3,60.9,424,87.4,311,143.8c-64.1,32-122,72.7-172.8,123.4c-0.1,0.1-0.2,0.2-0.4,0.4
		c-3.6,3.5-6.5,7.6-10.9,10.3c-4.9-4-9.9-7.9-14.8-12c-2.3-1.9-0.2-3.2,0.8-4.5c16.5-22,34.7-42.4,54.5-61.4
		c72.1-69.2,156.8-117.1,250.7-149.8c51.1-17.8,103.5-29.9,157.1-37.1c28.4-3.9,57-6.3,85.7-7.2c1.2,0,2.7,0.7,3.5-0.9
		C668,5,671.6,5,675.2,5z"/>
	<path class="st0" d="M84.7,490c-1.9-2-4.5-1.3-6.7-1.7c-36.1-6.7-60.8-34.5-63-70.9c-1.7-28.6,6.8-53.1,29.5-71.5
		C79,318,147.8,324.2,162,388.8c2.3,10.6,3.1,21.2,2.5,32.1c-0.2,3.6-1.3,4.5-4.9,4.5c-32-0.2-64-0.1-96-0.1c-5.8,0-5.8,0-3.8,5.7
		c5.4,15.6,19.7,24.6,37,23.8c12.4-0.6,23.1-5.2,32.2-13.4c2.2-2,3.6-2.2,5.9,0c6.3,5.9,12.8,11.6,19.4,17.2
		c2.1,1.8,2.6,2.9,0.5,5.3c-13.5,14.9-30,23.7-50.1,25.4c-0.9,0.1-2-0.4-2.4,0.9C96.5,490,90.6,490,84.7,490z M89.8,397.6
		c9.6,0,19.2,0,28.8,0c1.8,0,3.8,0.4,3.2-2.7c-2.2-9.8-5.9-18.8-14.6-24.5c-9.9-6.5-20.7-6.8-31.1-1.7c-10.8,5.3-15.5,15.3-18,26.5
		c-0.7,2.9,1.4,2.3,2.9,2.3C70.6,397.6,80.2,397.6,89.8,397.6z"/>
	<path class="st0" d="M579.2,490c-3.7-2.1-8-1.8-12-2.8c-38.8-9.2-62-44.3-58-85.1c2.2-22.2,11.1-40.9,28.4-55.4
		c34.3-28.8,105.3-23.2,118.9,43.6c2.1,10.1,2.5,20.3,2.2,30.6c-0.1,3.9-1.5,4.4-4.9,4.4c-32.1-0.1-64.3,0-96.4-0.2
		c-4.5,0-5.2,0.9-3.7,5.1c5.8,17,21.9,26.5,41,24.2c10.9-1.3,20.3-5.7,28.4-12.9c2.8-2.5,4.2-2.1,6.7,0.2c6.2,5.8,12.5,11.4,19,16.9
		c2.4,2,2.2,3.2,0.2,5.3c-13.5,14.8-30,23.7-50.2,25.1c-0.8,0.1-1.7-0.1-1.9,1C591,490,585.1,490,579.2,490z M616.3,397.6
		c-0.3-2.1-0.5-3.5-0.8-4.9c-3.8-17.4-16.2-27.7-32.5-27.1c-15.3,0.5-30.1,15-31,30.1c-0.1,2.1,1,2,2.3,2
		C574.8,397.6,595.3,397.6,616.3,397.6z"/>
	<path class="st0" d="M1300.9,490c-1.7-2-4.2-1.3-6.2-1.7c-40.1-7.6-65.8-40.5-63.5-81.4c1.6-28,12.6-50.7,36.7-65.9
		c34.1-21.4,96-14.3,110.3,46.8c1.1,4.6,0.9,9.5,3,14c0,7.8,0,15.7,0,23.5c-34.4,0-68.8,0-103.2-0.2c-3.1,0-3.4,0.8-2.6,3.5
		c3.8,12.2,11.3,20.8,23.8,24.2c17.5,4.7,32.8,0.1,46.2-11.5c2.1-1.8,3.6-2.4,5.9-0.1c6.4,6,13,11.9,19.7,17.6
		c2.1,1.8,2.1,2.8,0.3,4.9c-13.8,15.4-30.9,24-51.5,25.6c-5.7,0.4-11.4-1-17,0.8C1302.2,490,1301.5,490,1300.9,490z M1305.8,397.6
		c9.6,0,19.3,0,28.9,0c1.7,0,3.6,0.6,3.5-2.5c-0.6-14.9-15-29.1-30.1-29.6c-16.5-0.6-28.3,9.2-33.1,27.4c-1,3.6-0.7,4.9,3.5,4.8
		C1287.6,397.4,1296.7,397.6,1305.8,397.6z"/>
	<path class="st1" d="M1319.8,489.2c0.2,0.3,0.4,0.5,0.6,0.8c-5.9,0-11.8,0-17.6,0C1308.4,488.2,1314.2,489.6,1319.8,489.2z"/>
	<path class="st0" d="M734.2,354c4.6-4.2,7.8-8.5,11.9-11.9c18.8-15.6,48.4-15.7,66.3,0c3.1,2.7,5.8,5.8,7.7,9.4
		c1.4,2.5,2.2,2.8,4.3,0.5c8.1-9,17.6-16,29.5-19c16-4.1,31.8-3.8,46.4,4.4c14.6,8.2,20.9,21.9,22.5,37.9
		c1.8,18.2,0.5,36.5,0.7,54.8c0.2,17.1-0.1,34.3,0.1,51.4c0,3.5-0.7,4.8-4.5,4.7c-11.6-0.3-23.2-0.3-34.8,0
		c-3.6,0.1-4.6-0.8-4.6-4.5c0.2-26.6,0.1-53.2,0.1-79.8c0-4.4-0.3-8.8-1.4-13.1c-3.2-12.4-11.9-18.6-25.3-18.2
		c-11.9,0.4-20.9,8-23.3,19.9c-0.7,3.5-1.1,7.1-1.1,10.7c0.1,26.9,0,53.9,0.1,80.8c0,3.4-0.7,4.4-4.2,4.3c-11.7-0.2-23.5-0.3-35.2,0
		c-3.9,0.1-4.5-1.3-4.4-4.7c0.1-26.6,0.1-53.2,0.1-79.8c0-3.9-0.1-7.8-1-11.6c-3.3-13.7-12.1-20.3-26.2-19.5
		c-12.5,0.7-21.4,9.4-23.1,22.4c-0.6,4.4-0.7,8.8-0.7,13.2c0,25.3,0,50.6,0.1,75.9c0,3-0.5,4.2-3.9,4.1c-12.1-0.2-24.2-0.2-36.2,0
		c-2.7,0-3.6-0.7-3.5-3.5c0.1-48.5,0.1-97,0-145.5c0-2.9,0.6-4,3.8-3.9c12.1,0.2,24.2,0.2,36.2,0c3.2,0,3.8,1.1,3.7,4
		C734,342.5,734.2,347.8,734.2,354z"/>
	<path class="st0" d="M1004.2,354.6c10.1-12.1,21-21,35.9-23.2c31.8-4.6,59.8,9.4,72.6,38.9c14.8,34.1,12.6,67.4-11.8,97.2
		c-19.7,24.1-65.9,32.3-92.7,3.5c-1.1-1.1-1.8-2.6-2.7-3.9c-0.5,0.3-0.9,0.6-1.4,0.9c0,5-0.2,10,0.1,15c0.1,2.6-0.8,3.3-3.3,3.2
		c-12.2-0.1-24.5-0.1-36.7,0c-2.9,0-3.5-0.9-3.5-3.6c0.1-66.9,0.1-133.8,0-200.7c0-2.8,0.7-3.6,3.5-3.5c11.9,0.1,23.8,0.2,35.7,0
		c3.5-0.1,4.3,0.9,4.3,4.3c-0.2,22-0.1,44.1-0.1,66.1C1004.2,350.2,1004.2,351.8,1004.2,354.6z M1003.9,410.4
		c-0.3,8.9,2.2,17.8,7.3,25.7c12.3,18.9,38.1,21.6,54.1,5.7c16.7-16.6,16.5-48.1-0.4-64.6c-15.1-14.7-39.2-13-52,3.8
		C1006.5,389.5,1003.7,399.2,1003.9,410.4z"/>
	<path class="st0" d="M240.1,354.5c8.9-10.8,17.9-19.2,30.5-22.2c28.8-6.9,63.6,4.4,65.4,48.8c1.3,33.9,0.3,67.9,0.4,101.9
		c0,2.7-0.9,3.2-3.3,3.2c-12.1-0.1-24.1-0.2-36.2,0c-3.4,0.1-4.4-0.9-4.3-4.3c0.1-26.8,0.1-53.5,0.1-80.3c0-2.3,0-4.6-0.2-6.9
		c-1.2-15.3-10.8-24.3-25.8-24.2c-14.9,0-25.6,9.7-26.1,24.7c-0.6,19.2-0.3,38.5-0.4,57.8c0,9.8-0.1,19.6,0.1,29.4
		c0.1,3.1-0.9,3.8-3.9,3.8c-12.1-0.2-24.1-0.2-36.2,0c-3.2,0-3.7-1-3.7-3.9c0.1-48.3,0.1-96.6,0-145c0-3.3,1-4.1,4.1-4
		c11.9,0.2,23.8,0.2,35.7,0c2.9,0,4.1,0.7,3.9,3.8C239.9,342.4,240.1,347.8,240.1,354.5z"/>
	<path class="st0" d="M421.2,331.1c24,0.1,41.6,6,58.3,15.7c2.6,1.5,2.8,2.6,1.3,5.2c-4.5,7.7-8.9,15.5-13,23.5
		c-1.6,3.2-3.1,3.1-5.8,1.6c-10.4-5.8-21.3-10.5-33.2-12.1c-4.6-0.6-9.1-0.4-13.4,1.3c-3.5,1.4-6,3.8-6.5,7.8
		c-0.5,3.9,1.5,6.5,4.5,8.5c7.4,5,15.8,7.5,24.1,10.2c8.5,2.8,17,5.7,24.8,10c14.8,8.1,24,19.9,23.6,37.5c-0.5,20-9,35.1-28.1,42.9
		c-20.9,8.5-42.1,6.9-63.1,0.4c-11-3.4-20.9-8.9-30.3-15.5c-2.3-1.6-2.7-2.8-1-5.3c5.2-7.5,10.1-15.2,14.9-22.9
		c1.4-2.3,2.4-2.6,4.8-0.9c12.5,8.6,25.9,14.8,41.3,16.3c4.6,0.4,9.1,0.2,13.5-1.1c4.5-1.4,7.8-3.9,8.3-9c0.5-5-2.3-7.9-6.3-10
		c-8-4.2-16.8-6.1-25.3-8.8c-7-2.3-14-4.3-20.5-7.7c-14.2-7.3-23.7-18-24.7-34.8c-1.1-18.4,5.3-33.3,20.9-43.5
		C401.1,333.2,413.1,330.9,421.2,331.1z"/>
	<path class="st0" d="M1198.1,382.4c0,33-0.1,65.9,0.1,98.9c0,3.7-0.8,4.9-4.7,4.8c-11.7-0.3-23.5-0.2-35.2,0
		c-2.8,0-3.5-0.7-3.5-3.5c0.1-66.9,0.1-133.8,0-200.8c0-3.4,1.4-3.6,4-3.5c11.7,0.1,23.5,0.2,35.2,0c3.4-0.1,4.3,0.9,4.3,4.3
		C1198,315.8,1198.1,349.1,1198.1,382.4z"/>
</g>
</svg>
